{
  "type": "service_account",
  "project_id": "closing-ratio-32360",
  "private_key_id": "7790daa8d4b6329e8a403495fb1c5911982ba5c4",
  "private_key": "-----BEGIN PRIVATE KEY-----\nMIIEvwIBADANBgkqhkiG9w0BAQEFAASCBKkwggSlAgEAAoIBAQDG41nJu+QbkztO\nZCZ8Bi+jCBzaZe//O4iERHC0dlht3yTYVEgvIPvMlzUwM9QYmhAMkGzJ7C8vwFpr\nlt0VXNx+blPNNd1prpHpWJ7gvYv26IrsUXtQAtiPFEn1ZhWBm98hrh2BOruYzmRT\nvGX1tZKFel03/Zrp7XXbxRSOzxDnX04/G6icPG9MwHLIxna0YbG1BFueKBRpr7zW\ntVPQPD5ZEY3guva2RdJLDi/ShywslL5H5RAj77+s0juTQkpnLMxR9jaCeREvOa/v\nL+x32B4jF23QykII4pEkLmyqD9AMLxBIgKxwVu1t/bVrLHCQZeW+5fdyXniSlyPp\npusbDPabAgMBAAECggEAIvtEBKaGlY8M5FnbJv9Ti6JWqNc7IjJPbaw4ApW6MgEI\nkwAn/hoYD8EcutCy4mzem8cfS1i+Z/C2Nqw/UI2XvqkbFkH+IqNwyJEsyKyuHIyE\nOtKOFOGbQ3c3FvGQoM5QrbTZPayd6F+M5+mAKXp5Pf7qvHlfsPtyOmhsmD21ZGxg\nenAhmSjhusSYBexifwFaBFYxgegYb3ZY4PtdIFnXrmDpqQmMWUIJb47CM2EauxKI\nJ8ZF0gaFYGT+TUFZVH2W0W0zQ+CAPa8V4flJoWfgpBoSxb5AS7AflVMu6qMS4xca\ngMGwkCEUJ4ObuVk4YcBMLdhpL5mt3LPQ4+laeK78OQKBgQDsKW2INOXngLfqzl9X\nod3qGTWWxCH+9nuNpRM7Cv0xoG1thHlWpjV+nh0jItbNI1Gl6Bejtl75zmVcH8ZU\nqaj3hyDJSvZpq5VG6RBVx5nDK/tp7Wgs8ksmsvOigbDa0HLUO9YauQTdvje4SXA+\nDVSRwlrIOp4682WJpeRKK9fqbQKBgQDXmF1xA89e38ULIaL27re5tn93DWEQuriE\nwb1/+xS4GeFEI8ZhZN7O5gkyIIwDWsjUw5lUs9OLrxFsj1HLdVxQpmk12Uiv3FB+\nO2BKm7BwxlK9g0kTEZAgE9jdtJMotaOi5rURHAAr4OeEyJzd5bnZdTDLUpqym+RN\nlYFTlKFAJwKBgQCQ+NGDZq2nUo4Ud0FyAyy+M2GBPr97y4WHK0nF2fYaC9iA/Wyb\nM4btRlSuqAlifob1qKcyWZauFPSF+/99I3VVFj+bMghYT/tgP1xGvDP46rv4h8OG\nq+pURFBpduHBQWrsPBsv5lpFYSrFV1euz/IVVFD0T3+owpeXSx38JjPydQKBgQDT\nJBYHE3soaC/6idOmz/1AtLk6p/CyyJri8TacOxJ8hmP2Lq8fPQF0URcab4OP2X4r\n2O+2Y3K/LxH6ZpXtkx94oLETGpw0FqkCJzZTewweNixcC1IqiZ3DvIw7/JfOW61J\nYXZcrjaAwn8arLnsGwqbLElAJsL4PvIlBVElwL73KwKBgQDDQoyDi/q35qERFYTB\n2CqWiXp/s6UZCd3eafQQ89SrFBiW3XmuW+Vu6L2wnOMxplrMGjBSaTMOVWKRW7wn\nFpizgppmloT0cYG9C+rGM4VqWCaTY68dovRSdqS3ti6Z2Z6SUtxCSUbAPtuZqsuc\nyElmdosb/sncjBa2dEcfwF3IQg==\n-----END PRIVATE KEY-----\n",
  "client_email": "firebase-adminsdk-4mdem@closing-ratio-32360.iam.gserviceaccount.com",
  "client_id": "106981513783943798402",
  "auth_uri": "https://accounts.google.com/o/oauth2/auth",
  "token_uri": "https://accounts.google.com/o/oauth2/token",
  "auth_provider_x509_cert_url": "https://www.googleapis.com/oauth2/v1/certs",
  "client_x509_cert_url": "https://www.googleapis.com/robot/v1/metadata/x509/firebase-adminsdk-4mdem%40closing-ratio-32360.iam.gserviceaccount.com"
}
